EESchema Schematic File Version 4
LIBS:RPi_Zero_pHat_Template-cache
EELAYER 26 0
EELAYER END
$Descr A4 11693 8268
encoding utf-8
Sheet 2 4
Title ""
Date ""
Rev ""
Comp ""
Comment1 ""
Comment2 ""
Comment3 ""
Comment4 ""
$EndDescr
$Comp
L wisdom:LT1766 U1
U 1 1 60BB30C0
P 2650 1050
F 0 "U1" H 2650 250 50  0000 C CNN
F 1 "LT1766" H 2650 100 50  0000 C CNN
F 2 "Package_TO_SOT_THT:TO-220F-9_P1.8x3.7mm_StaggerEven_Lead3.5mm_Vertical" H 2650 200 50  0001 C CNN
F 3 "" H 2650 200 50  0001 C CNN
	1    2650 1050
	1    0    0    -1  
$EndComp
$Comp
L Device:C_Small C1
U 1 1 60BB31AC
P 750 3100
F 0 "C1" H 842 3146 50  0000 L CNN
F 1 "0.03u" H 842 3055 50  0000 L CNN
F 2 "Capacitor_THT:CP_Axial_L10.0mm_D4.5mm_P15.00mm_Horizontal" H 750 3100 50  0001 C CNN
F 3 "~" H 750 3100 50  0001 C CNN
	1    750  3100
	1    0    0    -1  
$EndComp
$Comp
L Device:C_Small C2
U 1 1 60BB321E
P 1750 3100
F 0 "C2" H 1842 3146 50  0000 L CNN
F 1 "220p" H 1842 3055 50  0000 L CNN
F 2 "Capacitor_THT:CP_Axial_L10.0mm_D4.5mm_P15.00mm_Horizontal" H 1750 3100 50  0001 C CNN
F 3 "~" H 1750 3100 50  0001 C CNN
	1    1750 3100
	1    0    0    -1  
$EndComp
$Comp
L Device:C_Small C3
U 1 1 60BB3284
P 3150 2150
F 0 "C3" H 3242 2196 50  0000 L CNN
F 1 "0.33u" H 3242 2105 50  0000 L CNN
F 2 "Capacitor_THT:CP_Axial_L10.0mm_D4.5mm_P15.00mm_Horizontal" H 3150 2150 50  0001 C CNN
F 3 "~" H 3150 2150 50  0001 C CNN
	1    3150 2150
	1    0    0    -1  
$EndComp
$Comp
L Connector:Conn_01x02_Female J3
U 1 1 60BB332F
P 1650 1600
F 0 "J3" V 1497 1648 50  0000 L CNN
F 1 "Conn_01x02_Female" V 1588 1648 50  0000 L CNN
F 2 "Connector_Molex:Molex_KK-254_AE-6410-02A_1x02_P2.54mm_Vertical" H 1650 1600 50  0001 C CNN
F 3 "~" H 1650 1600 50  0001 C CNN
	1    1650 1600
	0    -1   -1   0   
$EndComp
$Comp
L Device:R_Small_US R1
U 1 1 60BB3450
P 1300 2700
F 0 "R1" V 1095 2700 50  0000 C CNN
F 1 "5k" V 1186 2700 50  0000 C CNN
F 2 "Resistor_THT:R_Axial_DIN0204_L3.6mm_D1.6mm_P1.90mm_Vertical" H 1300 2700 50  0001 C CNN
F 3 "~" H 1300 2700 50  0001 C CNN
	1    1300 2700
	0    1    1    0   
$EndComp
Wire Wire Line
	1750 3200 1750 3600
Wire Wire Line
	750  3000 750  2700
Wire Wire Line
	750  2700 1200 2700
Wire Wire Line
	1400 2700 1750 2700
Wire Wire Line
	1750 2700 1750 3000
Wire Wire Line
	2250 2700 1750 2700
Connection ~ 1750 2700
Wire Wire Line
	2400 2100 2400 2000
Wire Wire Line
	2400 2000 1700 2000
Wire Wire Line
	1700 2000 1700 1900
Wire Wire Line
	1700 1900 1750 1900
Wire Wire Line
	1750 1900 1750 1800
Wire Wire Line
	1650 1800 1650 1900
Wire Wire Line
	1650 1900 1700 1900
Connection ~ 1700 1900
$Comp
L pspice:DIODE D1
U 1 1 60BB37DF
P 3550 1650
F 0 "D1" H 3550 1915 50  0000 C CNN
F 1 "DIODE" H 3550 1824 50  0000 C CNN
F 2 "Diode_THT:D_5KPW_P7.62mm_Vertical_AnodeUp" H 3550 1650 50  0001 C CNN
F 3 "~" H 3550 1650 50  0001 C CNN
	1    3550 1650
	-1   0    0    1   
$EndComp
$Comp
L Device:R_Small_US R2
U 1 1 60BB3971
P 4500 2650
F 0 "R2" H 4568 2696 50  0000 L CNN
F 1 "41k" H 4568 2605 50  0000 L CNN
F 2 "Resistor_THT:R_Axial_DIN0204_L3.6mm_D1.6mm_P1.90mm_Vertical" H 4500 2650 50  0001 C CNN
F 3 "~" H 4500 2650 50  0001 C CNN
	1    4500 2650
	1    0    0    -1  
$EndComp
$Comp
L Device:R_Small_US R3
U 1 1 60BB39D9
P 4500 3250
F 0 "R3" H 4568 3296 50  0000 L CNN
F 1 "4.99k" H 4568 3205 50  0000 L CNN
F 2 "Resistor_THT:R_Axial_DIN0204_L3.6mm_D1.6mm_P1.90mm_Vertical" H 4500 3250 50  0001 C CNN
F 3 "~" H 4500 3250 50  0001 C CNN
	1    4500 3250
	1    0    0    -1  
$EndComp
$Comp
L Device:D_Zener D2
U 1 1 60BB3A90
P 3650 2250
F 0 "D2" V 3604 2329 50  0000 L CNN
F 1 "D_Zener" V 3695 2329 50  0000 L CNN
F 2 "Diode_THT:D_5KPW_P7.62mm_Vertical_AnodeUp" H 3650 2250 50  0001 C CNN
F 3 "~" H 3650 2250 50  0001 C CNN
	1    3650 2250
	0    1    1    0   
$EndComp
$Comp
L pspice:INDUCTOR L1
U 1 1 60BB3CE5
P 4150 2100
F 0 "L1" H 4150 2315 50  0000 C CNN
F 1 "100u" H 4150 2224 50  0000 C CNN
F 2 "Inductor_THT:L_Axial_L5.3mm_D2.2mm_P2.54mm_Vertical_Vishay_IM-1" H 4150 2100 50  0001 C CNN
F 3 "~" H 4150 2100 50  0001 C CNN
	1    4150 2100
	1    0    0    -1  
$EndComp
Wire Wire Line
	2850 2100 2850 1650
Wire Wire Line
	2850 1650 3150 1650
Wire Wire Line
	3150 2050 3150 1650
Wire Wire Line
	3000 2400 3150 2400
Wire Wire Line
	3150 2400 3150 2250
Wire Wire Line
	3150 2400 3550 2400
Wire Wire Line
	3550 2400 3550 2100
Wire Wire Line
	3550 2100 3650 2100
Connection ~ 3150 2400
Wire Wire Line
	3900 2100 3650 2100
Connection ~ 3650 2100
Wire Wire Line
	3350 1650 3150 1650
Connection ~ 3150 1650
Wire Wire Line
	4500 1650 4500 2100
Wire Wire Line
	3750 1650 4500 1650
Wire Wire Line
	4500 2750 4500 2950
Wire Wire Line
	4400 2100 4500 2100
Connection ~ 4500 2100
Wire Wire Line
	4500 2100 4500 2550
Wire Wire Line
	3000 2550 3400 2550
Wire Wire Line
	3400 2550 3400 2750
Wire Wire Line
	3400 2750 4400 2750
Wire Wire Line
	4400 2750 4400 2550
Wire Wire Line
	4400 2550 4500 2550
Connection ~ 4500 2550
Wire Wire Line
	3000 2700 3200 2700
Wire Wire Line
	3200 2700 3200 2950
Wire Wire Line
	3200 2950 4500 2950
Connection ~ 4500 2950
Wire Wire Line
	4500 2950 4500 3150
$Comp
L power:GND #PWR03
U 1 1 60BB5DDA
P 3650 2500
F 0 "#PWR03" H 3650 2250 50  0001 C CNN
F 1 "GND" H 3655 2327 50  0000 C CNN
F 2 "" H 3650 2500 50  0001 C CNN
F 3 "" H 3650 2500 50  0001 C CNN
	1    3650 2500
	1    0    0    -1  
$EndComp
Wire Wire Line
	3650 2400 3650 2500
$Comp
L Device:C_Small C4
U 1 1 60BB6371
P 5150 2100
F 0 "C4" H 5242 2146 50  0000 L CNN
F 1 "150u" H 5242 2055 50  0000 L CNN
F 2 "Capacitor_THT:CP_Axial_L10.0mm_D4.5mm_P15.00mm_Horizontal" H 5150 2100 50  0001 C CNN
F 3 "~" H 5150 2100 50  0001 C CNN
	1    5150 2100
	1    0    0    -1  
$EndComp
$Comp
L Device:Opamp_Dual_Generic U2
U 1 1 60BB643B
P 5950 1750
F 0 "U2" H 5950 2117 50  0000 C CNN
F 1 "Opamp_Dual_Generic" H 5950 2026 50  0000 C CNN
F 2 "Package_DIP:DIP-8_W7.62mm" H 5950 1750 50  0001 C CNN
F 3 "~" H 5950 1750 50  0001 C CNN
	1    5950 1750
	1    0    0    -1  
$EndComp
$Comp
L Device:R_Small_US R4
U 1 1 60BB6486
P 6550 2000
F 0 "R4" H 6618 2046 50  0000 L CNN
F 1 "15k" H 6618 1955 50  0000 L CNN
F 2 "Resistor_THT:R_Axial_DIN0204_L3.6mm_D1.6mm_P1.90mm_Vertical" H 6550 2000 50  0001 C CNN
F 3 "~" H 6550 2000 50  0001 C CNN
	1    6550 2000
	1    0    0    -1  
$EndComp
$Comp
L Device:R_Small_US R5
U 1 1 60BB6520
P 6550 2550
F 0 "R5" H 6618 2596 50  0000 L CNN
F 1 "5k" H 6618 2505 50  0000 L CNN
F 2 "Resistor_THT:R_Axial_DIN0204_L3.6mm_D1.6mm_P1.90mm_Vertical" H 6550 2550 50  0001 C CNN
F 3 "~" H 6550 2550 50  0001 C CNN
	1    6550 2550
	1    0    0    -1  
$EndComp
$Comp
L Device:R_Small_US R6
U 1 1 60BB6570
P 7450 1850
F 0 "R6" H 7518 1896 50  0000 L CNN
F 1 "280" H 7518 1805 50  0000 L CNN
F 2 "Resistor_THT:R_Axial_DIN0204_L3.6mm_D1.6mm_P1.90mm_Vertical" H 7450 1850 50  0001 C CNN
F 3 "~" H 7450 1850 50  0001 C CNN
	1    7450 1850
	1    0    0    -1  
$EndComp
$Comp
L Device:R_Small_US R7
U 1 1 60BB662F
P 7450 2400
F 0 "R7" H 7518 2446 50  0000 L CNN
F 1 "250" H 7518 2355 50  0000 L CNN
F 2 "Resistor_THT:R_Axial_DIN0204_L3.6mm_D1.6mm_P1.90mm_Vertical" H 7450 2400 50  0001 C CNN
F 3 "~" H 7450 2400 50  0001 C CNN
	1    7450 2400
	1    0    0    -1  
$EndComp
Wire Wire Line
	4500 1650 5150 1650
Wire Wire Line
	5150 1650 5150 2000
Connection ~ 4500 1650
Wire Wire Line
	5150 2200 5150 3650
Wire Wire Line
	5650 1650 5150 1650
Connection ~ 5150 1650
Wire Wire Line
	6250 1750 6550 1750
Wire Wire Line
	6550 1750 6550 1900
Wire Wire Line
	6550 2100 6550 2300
Wire Wire Line
	6550 2650 6550 3650
Wire Wire Line
	6550 3650 5150 3650
Wire Wire Line
	5650 1850 5550 1850
Wire Wire Line
	5550 1850 5550 2300
Wire Wire Line
	5550 2300 6550 2300
Connection ~ 6550 2300
Wire Wire Line
	6550 2300 6550 2450
Wire Wire Line
	6550 1750 7300 1750
Wire Wire Line
	7300 1750 7300 1600
Wire Wire Line
	7300 1600 7450 1600
Wire Wire Line
	7450 1600 7450 1750
Connection ~ 6550 1750
Wire Wire Line
	7450 1950 7450 2300
Wire Wire Line
	7450 3650 6550 3650
Connection ~ 6550 3650
$Comp
L wisdom:L9110 U3
U 1 1 60BBE715
P 9350 2050
F 0 "U3" H 9450 2165 50  0000 C CNN
F 1 "L9110" H 9450 2074 50  0000 C CNN
F 2 "Package_DIP:DIP-8_W7.62mm" H 9450 2050 50  0001 C CNN
F 3 "" H 9450 2050 50  0001 C CNN
	1    9350 2050
	1    0    0    -1  
$EndComp
Wire Wire Line
	9050 2350 8800 2350
Wire Wire Line
	8800 2350 8800 2500
Wire Wire Line
	8800 2500 9050 2500
Wire Wire Line
	8800 2350 8800 1600
Wire Wire Line
	8800 1600 7450 1600
Connection ~ 8800 2350
Connection ~ 7450 1600
$Comp
L Connector:Conn_01x02_Female J4
U 1 1 60BC035A
P 8100 2500
F 0 "J4" H 7994 2175 50  0000 C CNN
F 1 "Conn_01x02_Female" H 7994 2266 50  0000 C CNN
F 2 "Connector_Molex:Molex_KK-254_AE-6410-02A_1x02_P2.54mm_Vertical" H 8100 2500 50  0001 C CNN
F 3 "~" H 8100 2500 50  0001 C CNN
	1    8100 2500
	-1   0    0    1   
$EndComp
Wire Wire Line
	9050 2200 8600 2200
Wire Wire Line
	8600 2200 8600 2400
Wire Wire Line
	8600 2400 8300 2400
Wire Wire Line
	9050 2700 8600 2700
Wire Wire Line
	8600 2700 8600 2500
Wire Wire Line
	8600 2500 8300 2500
Wire Wire Line
	9850 2200 10050 2200
Wire Wire Line
	10050 2200 10050 2700
Wire Wire Line
	10050 2700 9850 2700
Wire Wire Line
	9850 2350 10350 2350
Wire Wire Line
	9850 2500 10350 2500
Text Label 10350 2350 0    50   ~ 0
GPIO23
Text Label 10350 2500 0    50   ~ 0
GPIO24
Wire Wire Line
	7450 2500 7450 3650
Wire Wire Line
	750  3200 750  3600
Text Label 750  3900 0    50   ~ 0
GND
Wire Wire Line
	750  3600 1750 3600
Connection ~ 750  3600
Wire Wire Line
	750  3600 750  3900
Wire Wire Line
	1750 3600 4500 3600
Wire Wire Line
	4900 3600 4900 3650
Wire Wire Line
	4900 3650 5150 3650
Connection ~ 1750 3600
Connection ~ 5150 3650
Wire Wire Line
	4500 3350 4500 3600
Connection ~ 4500 3600
Wire Wire Line
	4500 3600 4900 3600
$EndSCHEMATC
